{
  "project_info": {
    "project_number": "320358782011",
    "project_id": "android-2c024",
    "storage_bucket": "android-2c024.appspot.com"
  },
  "client": [
    {
      "client_info": {
        "mobilesdk_app_id": "1:320358782011:android:62eae1ec07842d8e10f81e",
        "android_client_info": {
          "package_name": "com.example.davaleba_2"
        }
      },
      "oauth_client": [
        {
          "client_id": "320358782011-1kgqods8mp1phtcrr58q64i716n5rfn2.apps.googleusercontent.com",
          "client_type": 3
        }
      ],
      "api_key": [
        {
          "current_key": "AIzaSyC4UDh_cjxEzeESxINqj_EQzmiqAhQuNdo"
        }
      ],
      "services": {
        "appinvite_service": {
          "other_platform_oauth_client": [
            {
              "client_id": "320358782011-1kgqods8mp1phtcrr58q64i716n5rfn2.apps.googleusercontent.com",
              "client_type": 3
            }
          ]
        }
      }
    }
  ],
  "configuration_version": "1"
}